<svg width="50" height="31" viewBox="0 0 50 31" fill="none" xmlns="http://www.w3.org/2000/svg">
<g clip-path="url(#clip0)">
<path d="M42.3188 26.3025C42.5177 26.4889 42.7516 26.6347 43.0073 26.7314C43.263 26.8282 43.5354 26.874 43.8089 26.8664C44.0825 26.8587 44.3518 26.7976 44.6016 26.6867C44.8513 26.5758 45.0766 26.4171 45.2646 26.2198C45.4525 26.0225 45.5995 25.7904 45.697 25.5368C45.7946 25.2831 45.8408 25.0129 45.833 24.7416C45.8253 24.4702 45.7637 24.203 45.6519 23.9552C45.5401 23.7075 45.3802 23.484 45.1813 23.2975L26.4313 5.73088C26.0445 5.3681 25.5323 5.16597 25 5.16597C24.4677 5.16597 23.9556 5.3681 23.5688 5.73088L4.81668 23.2975C4.61342 23.4828 4.4493 23.7062 4.33383 23.9549C4.21836 24.2036 4.15385 24.4725 4.14405 24.7461C4.13426 25.0197 4.17936 25.2926 4.27675 25.5487C4.37413 25.8049 4.52186 26.0393 4.71135 26.2384C4.90084 26.4375 5.12831 26.5972 5.38055 26.7083C5.6328 26.8194 5.90478 26.8797 6.18071 26.8857C6.45664 26.8916 6.73102 26.8432 6.9879 26.743C7.24478 26.6429 7.47905 26.4932 7.67709 26.3025L25 10.075L42.3188 26.3025V26.3025Z" fill="#363636"/>
</g>
<defs>
<clipPath id="clip0">
<rect width="31" height="50" fill="#363636" transform="translate(50) rotate(90)"/>
</clipPath>
</defs>
</svg>
